{"data":[{"id":35864,"value":15,"date":"2023-08-22 06:13:04","description":"15 \u00b5g\/m\u00b3 : d\u00e9passement de la moyenne quotidienne de PM2.5 pour la station L\u00c9vis Parc Georges-Maranda (FRM)."},{"id":35744,"value":16,"date":"2023-08-22 05:12:54","description":"16 \u00b5g\/m\u00b3 : d\u00e9passement de la moyenne quotidienne de PM2.5 pour la station L\u00c9vis Parc Georges-Maranda (FRM)."},{"id":35628,"value":17,"date":"2023-08-22 04:13:02","description":"17 \u00b5g\/m\u00b3 : d\u00e9passement de la moyenne quotidienne de PM2.5 pour la station L\u00c9vis Parc Georges-Maranda (FRM)."},{"id":35495,"value":17,"date":"2023-08-22 03:13:03","description":"17 \u00b5g\/m\u00b3 : d\u00e9passement de la moyenne quotidienne de PM2.5 pour la station L\u00c9vis Parc Georges-Maranda (FRM)."}],"links":{"first":"\/?page=1","last":"\/?page=4","prev":null,"next":"\/?page=2"},"meta":{"current_page":1,"from":1,"last_page":4,"path":"\/","per_page":4,"to":4,"total":13}}